<svg width="48" height="45" viewBox="0 0 48 45" fill="none" xmlns="http://www.w3.org/2000/svg">
<path d="M16.2016 9.52905C14.7812 9.52905 13.6303 8.44475 13.6303 7.10648C13.6303 5.85876 12.5521 4.84513 11.2301 4.84513C9.90577 4.84513 8.8299 5.86097 8.8299 7.10648C8.8299 8.44475 7.67902 9.52905 6.25858 9.52905C4.83814 9.52905 3.68726 8.44475 3.68726 7.10648C3.68726 3.18886 7.07193 0 11.2301 0C15.3883 0 18.773 3.18886 18.773 7.10648C18.773 8.44475 17.6221 9.52905 16.2016 9.52905Z" fill="white"/>
<path d="M41.3806 9.52905C39.9602 9.52905 38.8093 8.44475 38.8093 7.10648C38.8093 5.85876 37.7311 4.84513 36.4091 4.84513C35.0847 4.84513 34.0089 5.85876 34.0089 7.10648C34.0089 8.44475 32.858 9.52905 31.4375 9.52905C30.0171 9.52905 28.8662 8.44475 28.8662 7.10648C28.8639 3.18886 32.2485 0 36.4091 0C40.5696 0 43.9519 3.18886 43.9519 7.10648C43.9519 8.44475 42.801 9.52905 41.3806 9.52905Z" fill="white"/>
<path fill-rule="evenodd" clip-rule="evenodd" d="M28.3576 44.485H44.4653C46.1412 44.485 47.4468 43.1158 47.271 41.5457L44.4536 16.598C44.3012 15.2464 43.0917 14.2218 41.6479 14.2218H31.1751C29.7312 14.2218 28.5217 15.2464 28.3693 16.598L27.3886 25.2822C31.0655 24.4688 34.1426 22.4184 35.6847 19.6103C36.2848 18.515 37.7146 18.0865 38.8772 18.6541C40.0398 19.2216 40.4945 20.5687 39.8921 21.6619C37.4895 26.0443 32.559 29.1046 26.8651 29.9177L25.5519 41.5457C25.3738 43.1158 26.6817 44.485 28.3576 44.485Z" fill="white"/>
<path fill-rule="evenodd" clip-rule="evenodd" d="M3.17867 44.485H19.2863C20.9623 44.485 22.2702 43.1158 22.0944 41.5457L20.7812 29.9179C15.0864 29.1048 10.1547 26.0429 7.74985 21.6619C7.14979 20.5665 7.60452 19.2194 8.76478 18.6541C9.92738 18.0888 11.3572 18.515 11.9573 19.6103C13.4997 22.419 16.5791 24.4697 20.2578 25.2828L19.277 16.598C19.1246 15.2464 17.9151 14.2218 16.4712 14.2218H5.99611C4.55223 14.2218 3.34275 15.2464 3.19039 16.598L0.372955 41.5457C0.194814 43.1158 1.50274 44.485 3.17867 44.485Z" fill="white"/>
</svg>
